<?xml version="1.0" encoding="UTF-8" standalone="no"?>
<svg
   xmlns:dc="http://purl.org/dc/elements/1.1/"
   xmlns:cc="http://creativecommons.org/ns#"
   xmlns:rdf="http://www.w3.org/1999/02/22-rdf-syntax-ns#"
   xmlns:svg="http://www.w3.org/2000/svg"
   xmlns="http://www.w3.org/2000/svg"
   id="svg8"
   version="1.1"
   viewBox="0 0 210 297"
   height="297mm"
   width="210mm">
  <defs
     id="defs2" />
  <metadata
     id="metadata5">
    <rdf:RDF>
      <cc:Work
         rdf:about="">
        <dc:format>image/svg+xml</dc:format>
        <dc:type
           rdf:resource="http://purl.org/dc/dcmitype/StillImage" />
        <dc:title></dc:title>
      </cc:Work>
    </rdf:RDF>
  </metadata>
  <g
     id="layer1">
    <g
       transform="matrix(-0.26458333,0,0,0.26458333,149.88752,107.04704)"
       id="g875">
      <g
         id="g818">
	<g
   id="Layer_8_16_">
		<path
   d="M 61.792,2.588 C 64.771,0.864 68.105,0 71.444,0 c 3.33,0 6.663,0.864 9.655,2.588 l 230.116,167.2 c 5.963,3.445 9.656,9.823 9.656,16.719 0,6.895 -3.683,13.272 -9.656,16.713 L 81.099,370.427 c -5.972,3.441 -13.334,3.441 -19.302,0 -5.973,-3.453 -9.66,-9.833 -9.66,-16.724 V 19.305 c 0,-6.892 3.681,-13.269 9.655,-16.717 z"
   id="path815" />

	</g>

</g>
      <g
         id="g820">
</g>
      <g
         id="g822">
</g>
      <g
         id="g824">
</g>
      <g
         id="g826">
</g>
      <g
         id="g828">
</g>
      <g
         id="g830">
</g>
      <g
         id="g832">
</g>
      <g
         id="g834">
</g>
      <g
         id="g836">
</g>
      <g
         id="g838">
</g>
      <g
         id="g840">
</g>
      <g
         id="g842">
</g>
      <g
         id="g844">
</g>
      <g
         id="g846">
</g>
      <g
         id="g848">
</g>
    </g>
  </g>
</svg>
